<svg xmlns="http://www.w3.org/2000/svg" width="12.001" height="24" viewBox="0 0 12.001 24">
  <path id="facebook" d="M16,3.985h2.191V.169A28.292,28.292,0,0,0,15,0C11.837,0,9.673,1.987,9.673,5.639V9H6.187v4.266H9.673V24h4.274V13.267h3.345L17.823,9H13.946V6.062c0-1.233.333-2.077,2.051-2.077Z" transform="translate(-6.187)" fill="#464646"/>
</svg>
