<svg xmlns="http://www.w3.org/2000/svg" width="18" height="18" viewBox="0 0 18 18">
  <path id="invest-grey" d="M3.281,18A3.282,3.282,0,0,1,0,14.719V3.281A3.282,3.282,0,0,1,3.281,0H14.719A3.282,3.282,0,0,1,18,3.281V14.719A3.282,3.282,0,0,1,14.719,18Zm11.437-1.125a2.159,2.159,0,0,0,2.156-2.156V3.281a2.159,2.159,0,0,0-2.156-2.156H3.281A2.159,2.159,0,0,0,1.125,3.281V14.719a2.159,2.159,0,0,0,2.156,2.156H4.595v-3.99c0-.236.266-.428.594-.428s.593.192.593.428v3.99H8.406V7.857c0-.237.266-.428.594-.428s.594.192.594.428v9.018h2.624v-6.03c0-.236.266-.427.594-.427s.593.192.593.427v6.03Z" fill="#8e8e8e"/>
</svg>
