<svg xmlns="http://www.w3.org/2000/svg" xmlns:xlink="http://www.w3.org/1999/xlink" width="62" height="62" viewBox="0 0 62 62">
  <defs>
    <filter id="Ellipse_15" x="0" y="0" width="62" height="62" filterUnits="userSpaceOnUse">
      <feOffset dy="3" input="SourceAlpha"/>
      <feGaussianBlur stdDeviation="3" result="blur"/>
      <feFlood flood-opacity="0.102"/>
      <feComposite operator="in" in2="blur"/>
      <feComposite in="SourceGraphic"/>
    </filter>
  </defs>
  <g id="linkedin-black" transform="translate(-253 -261)">
    <g transform="matrix(1, 0, 0, 1, 253, 261)" filter="url(#Ellipse_15)">
      <circle id="Ellipse_15-2" data-name="Ellipse 15" cx="22" cy="22" r="22" transform="translate(9 6)" fill="#fff"/>
    </g>
    <g id="Group_709" data-name="Group 709" transform="translate(-948 -2353)">
      <path id="Path_312" data-name="Path 312" d="M21.429,21.283h.005V13.936c0-3.594-.774-6.362-4.975-6.362a4.361,4.361,0,0,0-3.928,2.159h-.058V7.91H8.489V21.282h4.148V14.66c0-1.743.33-3.429,2.49-3.429,2.127,0,2.159,1.99,2.159,3.541v6.511Z" transform="translate(1220.596 2629.747)" fill="#444"/>
      <path id="Path_313" data-name="Path 313" d="M.4,7.977H4.549V21.35H.4Z" transform="translate(1221.934 2629.681)" fill="#444"/>
      <path id="Path_314" data-name="Path 314" d="M2.405,0A2.417,2.417,0,1,0,4.811,2.405,2.406,2.406,0,0,0,2.405,0Z" transform="translate(1222 2631)" fill="#444"/>
    </g>
  </g>
</svg>
