<svg xmlns="http://www.w3.org/2000/svg" width="18" height="13.17" viewBox="0 0 18 13.17">
  <g id="message-icon" transform="translate(0 -6.44)">
    <g id="Group_38" data-name="Group 38" transform="translate(1.684 7.124)">
      <path id="Path_25" data-name="Path 25" d="M10.99,14.756a.441.441,0,0,1-.278-.1l-6.8-5.506a.773.773,0,0,1-.159-.909.456.456,0,0,1,.714-.2l6.521,5.281,6.521-5.281a.456.456,0,0,1,.714.2.772.772,0,0,1-.159.909l-6.8,5.506A.44.44,0,0,1,10.99,14.756Z" transform="translate(-3.674 -7.932)" fill="#58e0ff"/>
    </g>
    <g id="Group_39" data-name="Group 39" transform="translate(0 6.44)">
      <path id="Path_26" data-name="Path 26" d="M14.719,7.565a2.158,2.158,0,0,1,2.156,2.156v6.608a2.158,2.158,0,0,1-2.156,2.156H3.281a2.158,2.158,0,0,1-2.156-2.156V9.721A2.158,2.158,0,0,1,3.281,7.565H14.719m0-1.125H3.281A3.281,3.281,0,0,0,0,9.721v6.608A3.281,3.281,0,0,0,3.281,19.61H14.719A3.281,3.281,0,0,0,18,16.329V9.721A3.281,3.281,0,0,0,14.719,6.44Z" transform="translate(0 -6.44)" fill="#2178ff"/>
    </g>
  </g>
</svg>
