<svg xmlns="http://www.w3.org/2000/svg" width="21.4" height="24.031" viewBox="0 0 21.4 24.031">
  <g id="play-store" transform="translate(-0.5 0)">
    <path id="Path_299" data-name="Path 299" d="M.943,18.855A2.2,2.2,0,0,0,.5,20.189V39.783a2.2,2.2,0,0,0,.385,1.253l10.661-11.12Zm0,0" transform="translate(0 -17.971)" fill="#fff"/>
    <path id="Path_300" data-name="Path 300" d="M45.526,10.926l3.459-3.608L36.827.3a2.19,2.19,0,0,0-1.7-.218Zm0,0" transform="translate(-33.003 0)" fill="#fff"/>
    <path id="Path_301" data-name="Path 301" d="M43.393,276.18l-10.5,10.954a2.18,2.18,0,0,0,.7.114,2.21,2.21,0,0,0,1.108-.3l12.245-7.07Zm0,0" transform="translate(-30.871 -263.217)" fill="#fff"/>
    <path id="Path_302" data-name="Path 302" d="M284.731,173.446l-3.554-2.052-3.739,3.9,3.826,3.991,3.467-2a2.215,2.215,0,0,0,0-3.837Zm0,0" transform="translate(-263.939 -163.35)" fill="#fff"/>
  </g>
</svg>
