<svg xmlns="http://www.w3.org/2000/svg" width="19" height="19" viewBox="0 0 19 19">
  <path id="settings-grey" d="M8.644,18a1.087,1.087,0,0,1-1.084-.979l-.12-1.162a.509.509,0,0,0-.368-.435A6.527,6.527,0,0,1,5.824,14.9a.561.561,0,0,0-.257-.064.493.493,0,0,0-.317.112l-.9.739a1.086,1.086,0,0,1-1.454-.071l-.51-.509a1.086,1.086,0,0,1-.071-1.455l.739-.9a.519.519,0,0,0,.049-.574,6.467,6.467,0,0,1-.521-1.248.512.512,0,0,0-.436-.368L.978,10.44A1.087,1.087,0,0,1,0,9.356V8.644A1.087,1.087,0,0,1,.978,7.56l1.163-.12a.512.512,0,0,0,.436-.368A6.467,6.467,0,0,1,3.1,5.824a.519.519,0,0,0-.049-.574l-.739-.9a1.085,1.085,0,0,1,.071-1.454l.506-.507A1.092,1.092,0,0,1,4.35,2.31l.9.739a.493.493,0,0,0,.317.112A.561.561,0,0,0,5.824,3.1a6.467,6.467,0,0,1,1.248-.521.512.512,0,0,0,.368-.436L7.56.978A1.086,1.086,0,0,1,8.64,0h.716A1.087,1.087,0,0,1,10.44.978l.12,1.163a.512.512,0,0,0,.368.436,6.467,6.467,0,0,1,1.248.521.561.561,0,0,0,.257.064.493.493,0,0,0,.317-.112l.9-.739a1.087,1.087,0,0,1,1.455.071l.509.51a1.085,1.085,0,0,1,.071,1.454l-.739.9a.518.518,0,0,0-.049.574,6.527,6.527,0,0,1,.522,1.248.509.509,0,0,0,.435.368l1.162.12A1.087,1.087,0,0,1,18,8.644v.713a1.087,1.087,0,0,1-.979,1.084l-1.162.12a.509.509,0,0,0-.435.368,6.527,6.527,0,0,1-.522,1.248.518.518,0,0,0,.049.574l.739.9a1.092,1.092,0,0,1-.075,1.463l-.506.506a1.087,1.087,0,0,1-1.455.071l-.9-.739a.493.493,0,0,0-.317-.112.561.561,0,0,0-.257.064,6.527,6.527,0,0,1-1.248.522.509.509,0,0,0-.368.435l-.12,1.162A1.087,1.087,0,0,1,9.356,18Zm-2.3-4.1.018.01a5.456,5.456,0,0,0,1.035.432,1.629,1.629,0,0,1,1.166,1.411l.115,1.118h.648l.117-1.132a1.621,1.621,0,0,1,1.161-1.4,5.469,5.469,0,0,0,1.038-.433l.018-.01a1.687,1.687,0,0,1,.776-.191,1.619,1.619,0,0,1,1.039.375l.867.708.46-.459-.717-.874a1.638,1.638,0,0,1-.177-1.806l.01-.018a5.456,5.456,0,0,0,.432-1.035,1.628,1.628,0,0,1,1.411-1.165l1.118-.115V8.676l-1.132-.117a1.622,1.622,0,0,1-1.4-1.161,5.469,5.469,0,0,0-.433-1.038l-.01-.018a1.64,1.64,0,0,1,.184-1.814l.708-.867L14.339,3.2l-.877.716a1.61,1.61,0,0,1-1.029.367,1.687,1.687,0,0,1-.776-.191l-.018-.01A5.456,5.456,0,0,0,10.6,3.654,1.627,1.627,0,0,1,9.439,2.243L9.324,1.125H8.676L8.559,2.257A1.621,1.621,0,0,1,7.4,3.653a5.469,5.469,0,0,0-1.038.433l-.018.01a1.687,1.687,0,0,1-.776.191,1.619,1.619,0,0,1-1.039-.375L3.662,3.2l-.459.46.716.877a1.636,1.636,0,0,1,.176,1.8l-.01.018A5.456,5.456,0,0,0,3.654,7.4,1.628,1.628,0,0,1,2.243,8.561l-1.118.115v.648l1.132.117a1.62,1.62,0,0,1,1.4,1.161,5.469,5.469,0,0,0,.433,1.038l.01.018a1.64,1.64,0,0,1-.184,1.814l-.708.867.458.458.877-.716a1.61,1.61,0,0,1,1.029-.367A1.687,1.687,0,0,1,6.342,13.9ZM5.606,9A3.394,3.394,0,1,1,9,12.394,3.394,3.394,0,0,1,5.606,9ZM6.731,9A2.269,2.269,0,1,0,9,6.731,2.272,2.272,0,0,0,6.731,9Z" transform="translate(0.5 0.5)" fill="#8e8e8e" stroke="rgba(0,0,0,0)" stroke-miterlimit="10" stroke-width="1"/>
</svg>
